[{"type":"directory","name": ".","contents":[
    {"type":"directory","name":"bund","contents":[
      {"type":"directory","name":"2021","contents":[
        {"type":"directory","name":"K 1 Präambel","contents":[
          {"type":"file","name":"Einleitung.py"},
          {"type":"file","name":"T 1 0 1 Was das Land herausfordert.py"},
          {"type":"file","name":"T 1 0 2 Was wir voranbringen wollen.txt"},
          {"type":"file","name":"T 1 0 3 Wie wir arbeiten wollen.txt"}
        ]},
        {"type":"directory","name":"K 2 Moderner Staat, digitaler Aufbruch und Innovationen","contents":[
          {"type":"directory","name":"A 2 1 Moderner Staat und Demokratie","contents":[
            {"type":"file","name":"Einleitung.txt"},
            {"type":"file","name":"T 2 1 1 Verwaltungsmodernisierung.txt"},
            {"type":"file","name":"T 2 1 2 Lebendige Demokratie.txt"},
            {"type":"file","name":"T 2 1 3 Transparenz.txt"},
            {"type":"file","name":"T 2 1 4 Föderalismus.txt"},
            {"type":"file","name":"T 2 1 5 Wahlrecht.txt"},
            {"type":"file","name":"T 2 1 6 Planungs- und Genehmigungsbeschleunigung.txt"}
          ]},
          {"type":"directory","name":"A 2 2 Digitale Innovationen und digitale Infrastruktur","contents":[
            {"type":"file","name":"Einleitung.txt"},
            {"type":"file","name":"T 2 2 1 Digitaler Staat und digitale Verwaltung.txt"},
            {"type":"file","name":"T 2 2 2 Digitale Infrastruktur.txt"},
            {"type":"file","name":"T 2 2 3 Digitale Bürgerrechte und IT-Sicherheit.txt"},
            {"type":"file","name":"T 2 2 4 Nutzung von Daten und Datenrecht.txt"},
            {"type":"file","name":"T 2 2 5 Digitale Gesellschaft.txt"},
            {"type":"file","name":"T 2 2 6 Digitale Schlüsseltechnologien.txt"},
            {"type":"file","name":"T 2 2 7 Nachhaltigkeit in der Digitalisierung.txt"},
            {"type":"file","name":"T 2 2 8 Digitale Wirtschaft.txt"}
          ]},
          {"type":"directory","name":"A 2 3 Innovation, Wissenschaft, Hochschule und Forschung","contents":[
            {"type":"file","name":"Einleitung.txt"},
            {"type":"file","name":"T 2 3 1 Zukunftsstrategie Forschung.txt"},
            {"type":"file","name":"T 2 3 2 Innovationen und Transfer.txt"},
            {"type":"file","name":"T 2 3 3 Forschungsdaten.txt"},
            {"type":"file","name":"T 2 3 4 Rahmenbedingungen für Hochschule, Wissenschaft und Forschung.txt"},
            {"type":"file","name":"T 2 3 5 Arbeitsbedingungen in der Wissenschaft.txt"},
            {"type":"file","name":"T 2 3 6 Internationale Hochschulkooperation.txt"},
            {"type":"file","name":"T 2 3 7 Wissenschaftskommunikation und Partizipation.txt"}
          ]},
          {"type":"file","name":"Einleitung.txt"}
        ]},
        {"type":"directory","name":"K 3 Klimaschutz in einer sozial-ökologischen Marktwirtschaft","contents":[
          {"type":"directory","name":"A 3 1 Wirtschaft","contents":[
            {"type":"file","name":"Einleitung.txt"},
            {"type":"file","name":"T 3 1 1 Industrie.txt"},
            {"type":"file","name":"T 3 1 10 Bürokratieabbau.txt"},
            {"type":"file","name":"T 3 1 11 Fachkräfte.txt"},
            {"type":"file","name":"T 3 1 12 Vergaberecht.txt"},
            {"type":"file","name":"T 3 1 13 Rohstoffe, Lieferketten und Freihandel.txt"},
            {"type":"file","name":"T 3 1 14 Regionale Wirtschaftsförderung.txt"},
            {"type":"file","name":"T 3 1 2 Transformation der Automobilindustrie.txt"},
            {"type":"file","name":"T 3 1 3 Luft- und Raumfahrt.txt"},
            {"type":"file","name":"T 3 1 4 Maritime Wirtschaft.txt"},
            {"type":"file","name":"T 3 1 5 Einzelhandel.txt"},
            {"type":"file","name":"T 3 1 6 Gesundheitswirtschaft.txt"},
            {"type":"file","name":"T 3 1 7 Tourismus.txt"},
            {"type":"file","name":"T 3 1 8 Start-up-, Gründungs- und Innovationsförderung.txt"},
            {"type":"file","name":"T 3 1 9 Fairer Wettbewerb.txt"}
          ]},
          {"type":"directory","name":"A 3 2 Umwelt- und Naturschutz","contents":[
            {"type":"file","name":"Einleitung.txt"},
            {"type":"file","name":"T 3 2 1 Naturschutz und Biodiversität.txt"},
            {"type":"file","name":"T 3 2 2 Natürlicher Klimaschutz.txt"},
            {"type":"file","name":"T 3 2 3 Meeresschutz.txt"},
            {"type":"file","name":"T 3 2 4 Wasserschutz.txt"},
            {"type":"file","name":"T 3 2 5 Luftreinhaltung.txt"},
            {"type":"file","name":"T 3 2 6 Bodenschutz.txt"},
            {"type":"file","name":"T 3 2 7 Chemikalienpolitik.txt"},
            {"type":"file","name":"T 3 2 8 Kreislaufwirtschaft.txt"}
          ]},
          {"type":"directory","name":"A 3 3 Landwirtschaft und Ernährung","contents":[
            {"type":"file","name":"Einleitung.txt"},
            {"type":"file","name":"T 3 3 1 Tierschutz.txt"},
            {"type":"file","name":"T 3 3 2 Europäische Agrarpolitik.txt"},
            {"type":"file","name":"T 3 3 3 Ernährung.txt"},
            {"type":"file","name":"T 3 3 4 Landbau.txt"},
            {"type":"file","name":"T 3 3 5 Digitalisierung in der Landwirtschaft.txt"},
            {"type":"file","name":"T 3 3 6 Bodenpolitik.txt"},
            {"type":"file","name":"T 3 3 7 Fischerei.txt"},
            {"type":"file","name":"T 3 3 8 Lebensmittelmarkt.txt"}
          ]},
          {"type":"directory","name":"A 3 4 Mobilität","contents":[
            {"type":"file","name":"Einleitung.txt"},
            {"type":"file","name":"T 3 4 1 Infrastruktur.txt"},
            {"type":"file","name":"T 3 4 2 Bahnverkehr.txt"},
            {"type":"file","name":"T 3 4 3 Öffentlicher Verkehr und neue Mobilitätsangebote.txt"},
            {"type":"file","name":"T 3 4 4 Güterverkehr.txt"},
            {"type":"file","name":"T 3 4 5 Autoverkehr.txt"},
            {"type":"file","name":"T 3 4 6 Verkehrsordnung.txt"},
            {"type":"file","name":"T 3 4 7 Radverkehr.txt"},
            {"type":"file","name":"T 3 4 8 Schiffsverkehr.txt"},
            {"type":"file","name":"T 3 4 9 Luftverkehr.txt"}
          ]},
          {"type":"directory","name":"A 3 5 Klima, Energie, Transformation","contents":[
            {"type":"file","name":"Einleitung.txt"},
            {"type":"file","name":"T 3 5 1 Klimaschutzgesetz.txt"},
            {"type":"file","name":"T 3 5 10 Atom.txt"},
            {"type":"file","name":"T 3 5 2 Erneuerbare Energien.txt"},
            {"type":"file","name":"T 3 5 3 Kohleausstieg.txt"},
            {"type":"file","name":"T 3 5 4 Gas und Wasserstoff.txt"},
            {"type":"file","name":"T 3 5 5 Netze.txt"},
            {"type":"file","name":"T 3 5 6 Strommarktdesign.txt"},
            {"type":"file","name":"T 3 5 7 Sozial gerechte Energiepreise.txt"},
            {"type":"file","name":"T 3 5 8 Klima- und Energieaußenpolitik.txt"},
            {"type":"file","name":"T 3 5 9 Transformation der Wirtschaft.txt"}
          ]},
          {"type":"file","name":"Einleitung.txt"}
        ]},
        {"type":"directory","name":"K 4 Respekt, Chancen und soziale Sicherheit in der modernen Arbeitswelt","contents":[
          {"type":"directory","name":"A 4 1 Arbeit","contents":[
            {"type":"file","name":"Einleitung.txt"},
            {"type":"file","name":"T 4 1 1 Ausbildung.txt"},
            {"type":"file","name":"T 4 1 10 Tarifautonomie.txt"},
            {"type":"file","name":"T 4 1 11 Mitbestimmung.txt"},
            {"type":"file","name":"T 4 1 12 Digitale Plattformen.txt"},
            {"type":"file","name":"T 4 1 13 Arbeits- und Gesundheitsschutz.txt"},
            {"type":"file","name":"T 4 1 2 Weiterbildung.txt"},
            {"type":"file","name":"T 4 1 3 Arbeitszeit und Arbeitsort.txt"},
            {"type":"file","name":"T 4 1 4 Selbständige.txt"},
            {"type":"file","name":"T 4 1 5 Mindestlohn.txt"},
            {"type":"file","name":"T 4 1 6 Mini- und Midijobs.txt"},
            {"type":"file","name":"T 4 1 7 Haushaltsnahe Dienstleistungen.txt"},
            {"type":"file","name":"T 4 1 8 Befristungen.txt"},
            {"type":"file","name":"T 4 1 9 Arbeitnehmerüberlassung und Arbeitskräftemobilität.txt"}
          ]},
          {"type":"directory","name":"A 4 2 Sozialstaat, Altersvorsorge, Grundsicherung","contents":[
            {"type":"file","name":"Einleitung.txt"},
            {"type":"file","name":"T 4 2 1 Altersvorsorge.txt"},
            {"type":"file","name":"T 4 2 2 Prävention und Rehabilitation.txt"},
            {"type":"file","name":"T 4 2 3 Renteneintritt.txt"},
            {"type":"file","name":"T 4 2 4 Absicherung für Selbständige.txt"},
            {"type":"file","name":"T 4 2 5 Bürgergeld.txt"},
            {"type":"file","name":"T 4 2 6 Inklusion.txt"}
          ]},
          {"type":"directory","name":"A 4 3 Pflege und Gesundheit","contents":[
            {"type":"file","name":"Einleitung.txt"},
            {"type":"file","name":"T 4 3 1 Pflege.txt"},
            {"type":"file","name":"T 4 3 10 Drogenpolitik.txt"},
            {"type":"file","name":"T 4 3 11 Gesundheitsfinanzierung.txt"},
            {"type":"file","name":"T 4 3 2 Aus- und Weiterbildung in Gesundheit und Pflege.txt"},
            {"type":"file","name":"T 4 3 3 Öffentlicher Gesundheitsdienst.txt"},
            {"type":"file","name":"T 4 3 4 Digitalisierung im Gesundheitswesen.txt"},
            {"type":"file","name":"T 4 3 5 Gesundheitsförderung.txt"},
            {"type":"file","name":"T 4 3 6 Ambulante und stationäre Gesundheitsversorgung.txt"},
            {"type":"file","name":"T 4 3 7 Krankenhausplanung und -finanzierung.txt"},
            {"type":"file","name":"T 4 3 8 Rechte von Patientinnen und Patienten.txt"},
            {"type":"file","name":"T 4 3 9 Versorgung mit Arzneimitteln und Impfstoffen.txt"}
          ]},
          {"type":"directory","name":"A 4 4 Bauen und Wohnen","contents":[
            {"type":"file","name":"Einleitung.txt"},
            {"type":"file","name":"T 4 4 1 Digitalisierung und Vereinfachung.txt"},
            {"type":"file","name":"T 4 4 2 Klimaschutz im Gebäudebereich.txt"},
            {"type":"file","name":"T 4 4 3 Schutz der Mieterinnen und Mieter.txt"},
            {"type":"file","name":"T 4 4 4 Wohneigentum.txt"},
            {"type":"file","name":"T 4 4 5 Städtebau.txt"}
          ]},
          {"type":"file","name":"Einleitung.txt"}
        ]},
        {"type":"directory","name":"K 5 Chancen für Kinder, starke Familien und beste Bildung ein Leben lang","contents":[
          {"type":"directory","name":"A 5 1 Bildung und Chancen für alle","contents":[
            {"type":"file","name":"Einleitung.txt"},
            {"type":"file","name":"T 5 1 1 Frühkindliche Bildung.txt"},
            {"type":"file","name":"T 5 1 2 Ganztag.txt"},
            {"type":"file","name":"T 5 1 3 Startchancen-Programm.txt"},
            {"type":"file","name":"T 5 1 4 Digitalpakt Schule.txt"},
            {"type":"file","name":"T 5 1 5 Fortbildung für Lehrerinnen und Lehrer.txt"},
            {"type":"file","name":"T 5 1 6 Ausbildungsförderung.txt"},
            {"type":"file","name":"T 5 1 7 Erwachsenenbildung.txt"}
          ]},
          {"type":"directory","name":"A 5 2 Kinder, Jugend, Familien und Senioren","contents":[
            {"type":"file","name":"Einleitung.txt"},
            {"type":"file","name":"T 5 2 1 Kinder und Jugend.txt"},
            {"type":"file","name":"T 5 2 2 Kinderschutz.txt"},
            {"type":"file","name":"T 5 2 3 Fachkräfte.txt"},
            {"type":"file","name":"T 5 2 4 Kindergrundsicherung.txt"},
            {"type":"file","name":"T 5 2 5 Zeit für Familie.txt"},
            {"type":"file","name":"T 5 2 6 Familienrecht.txt"},
            {"type":"file","name":"T 5 2 7 Senioren.txt"}
          ]},
          {"type":"file","name":"Einleitung.txt"}
        ]},
        {"type":"directory","name":"K 6 Freiheit und Sicherheit, Gleichstellung und Vielfalt in der modernen Demokratie","contents":[
          {"type":"directory","name":"A 6 1 Innere Sicherheit, Bürgerrechte, Justiz, Verbraucherschutz, Sport","contents":[
            {"type":"file","name":"Einleitung.txt"},
            {"type":"file","name":"T 6 1 1 Bundespolizeien.txt"},
            {"type":"file","name":"T 6 1 10 Verantwortung für Holocaust-Überlebende.txt"},
            {"type":"file","name":"T 6 1 11 SED-Opfer.txt"},
            {"type":"file","name":"T 6 1 12 Kirchen und Religionsgemeinschaften.txt"},
            {"type":"file","name":"T 6 1 13 Unternehmensrecht.txt"},
            {"type":"file","name":"T 6 1 14 Schutz der Verbraucherinnen und Verbraucher.txt"},
            {"type":"file","name":"T 6 1 15 Entscheidung Sterbehilfe.txt"},
            {"type":"file","name":"T 6 1 16 Sport.txt"},
            {"type":"file","name":"T 6 1 2 Bevölkerungsschutz.txt"},
            {"type":"file","name":"T 6 1 3 Zusammenarbeit von Polizei und Justiz.txt"},
            {"type":"file","name":"T 6 1 4 Justiz.txt"},
            {"type":"file","name":"T 6 1 5 Kampf gegen Organisierte Kriminalität.txt"},
            {"type":"file","name":"T 6 1 6 Kampf gegen Extremismus.txt"},
            {"type":"file","name":"T 6 1 7 Kampf gegen Kindesmissbrauch.txt"},
            {"type":"file","name":"T 6 1 8 Waffenrecht, Sicherheitsdienste.txt"},
            {"type":"file","name":"T 6 1 9 Freiheit und Sicherheit.txt"}
          ]},
          {"type":"directory","name":"A 6 2 Gleichstellung","contents":[
            {"type":"file","name":"Einleitung.txt"},
            {"type":"file","name":"T 6 2 1 Schutz vor Gewalt.txt"},
            {"type":"file","name":"T 6 2 2 Ökonomische Gleichstellung.txt"},
            {"type":"file","name":"T 6 2 3 Reproduktive Selbstbestimmung.txt"}
          ]},
          {"type":"directory","name":"A 6 3 Vielfalt","contents":[
            {"type":"file","name":"Einleitung.txt"},
            {"type":"file","name":"T 6 3 1 Zivilgesellschaft und Demokratie.txt"},
            {"type":"file","name":"T 6 3 2 Migration, Teilhabe und Staatsangehörigkeitsrecht.txt"},
            {"type":"file","name":"T 6 3 3 Muslimisches Leben.txt"},
            {"type":"file","name":"T 6 3 4 Jüdisches Leben.txt"},
            {"type":"file","name":"T 6 3 5 Queeres Leben.txt"},
            {"type":"file","name":"T 6 3 6 Rassismus bekämpfen.txt"},
            {"type":"file","name":"T 6 3 7 Antidiskriminierung.txt"}
          ]},
          {"type":"directory","name":"A 6 4 Kultur- und Medienpolitik","contents":[
            {"type":"file","name":"Einleitung.txt"},
            {"type":"file","name":"T 6 4 1 Soziale Lage in Kunst und Kultur.txt"},
            {"type":"file","name":"T 6 4 2 Kulturförderung.txt"},
            {"type":"file","name":"T 6 4 3 Rechtliche Rahmenbedingungen.txt"},
            {"type":"file","name":"T 6 4 4 Kulturelles Erbe.txt"},
            {"type":"file","name":"T 6 4 5 Medien.txt"},
            {"type":"file","name":"T 6 4 6 Erinnerungskultur.txt"},
            {"type":"file","name":"T 6 4 7 Koloniales Erbe.txt"},
            {"type":"file","name":"T 6 4 8 Auswärtige Kultur- und Bildungspolitik.txt"}
          ]},
          {"type":"directory","name":"A 6 5 Gute Lebensverhältnisse in Stadt und Land","contents":[
            {"type":"file","name":"Einleitung.txt"}
          ]},
          {"type":"file","name":"Einleitung.txt"}
        ]},
        {"type":"directory","name":"K 7 Deutschlands Verantwortung für Europa und die Welt","contents":[
          {"type":"directory","name":"A 7 1 Europa","contents":[
            {"type":"file","name":"Einleitung.txt"},
            {"type":"file","name":"T 7 1 1 Zukunft der Europäischen Union.txt"},
            {"type":"file","name":"T 7 1 10 Europäische Freizügigkeit.txt"},
            {"type":"file","name":"T 7 1 2 Rechtsstaatlichkeit.txt"},
            {"type":"file","name":"T 7 1 3 Wirtschafts- und Währungsunion, Fiskalpolitik.txt"},
            {"type":"file","name":"T 7 1 4 Investitionen.txt"},
            {"type":"file","name":"T 7 1 5 Soziales Europa.txt"},
            {"type":"file","name":"T 7 1 6 Krisenfestes Europa.txt"},
            {"type":"file","name":"T 7 1 7 Europapolitische Koordinierung.txt"},
            {"type":"file","name":"T 7 1 8 Europäische Außen- und Sicherheitspolitik.txt"},
            {"type":"file","name":"T 7 1 9 Europäische Partner.txt"}
          ]},
          {"type":"directory","name":"A 7 2 Integration, Migration, Flucht","contents":[
            {"type":"file","name":"Einleitung.txt"},
            {"type":"file","name":"T 7 2 1 Aufenthalts- und Bleiberecht.txt"},
            {"type":"file","name":"T 7 2 2 Integration.txt"},
            {"type":"file","name":"T 7 2 3 Asylverfahren.txt"},
            {"type":"file","name":"T 7 2 4 Europäische und internationale Flüchtlingspolitik.txt"}
          ]},
          {"type":"directory","name":"A 7 3 Außen, Sicherheit, Verteidigung, Entwicklung, Menschenrechte","contents":[
            {"type":"file","name":"Einleitung.txt"},
            {"type":"file","name":"T 7 3 1 Multilateralismus.txt"},
            {"type":"file","name":"T 7 3 2 Abrüstung, Rüstungskontrolle, Rüstungsexporte.txt"},
            {"type":"file","name":"T 7 3 3 Menschenrechte.txt"},
            {"type":"file","name":"T 7 3 4 Humanitäre Hilfe.txt"},
            {"type":"file","name":"T 7 3 5 Zivile Krisenprävention und Friedensförderung.txt"},
            {"type":"file","name":"T 7 3 6 Verteidigung und Bundeswehr.txt"},
            {"type":"file","name":"T 7 3 7 Entwicklungszusammenarbeit.txt"},
            {"type":"file","name":"T 7 3 8 Bilaterale und regionale Beziehungen.txt"}
          ]},
          {"type":"file","name":"Einleitung.txt"}
        ]},
        {"type":"directory","name":"K 8 Zukunftsinvestitionen und nachhaltige Finanzen","contents":[
          {"type":"file","name":"Einleitung.txt"},
          {"type":"file","name":"T 8 0 1 Zukunftsinvestitionen.txt"},
          {"type":"file","name":"T 8 0 10 Wagniskapitalfinanzierung, Finanzmarkt Deutschland.txt"},
          {"type":"file","name":"T 8 0 11 Finanzieller Verbraucherschutz und Altersvorsorge.txt"},
          {"type":"file","name":"T 8 0 12 Sustainable Finance.txt"},
          {"type":"file","name":"T 8 0 13 Geldwäsche.txt"},
          {"type":"file","name":"T 8 0 14 Digitale Finanzdienstleistungen und Währungen.txt"},
          {"type":"file","name":"T 8 0 15 Versicherungen.txt"},
          {"type":"file","name":"T 8 0 16 Wirtschaftsprüfung.txt"},
          {"type":"file","name":"T 8 0 2 Haushaltspolitik.txt"},
          {"type":"file","name":"T 8 0 3 Subventionen.txt"},
          {"type":"file","name":"T 8 0 4 Bund-Länder-Kommunalfinanzen.txt"},
          {"type":"file","name":"T 8 0 5 Steuern.txt"},
          {"type":"file","name":"T 8 0 6 Vollzug, Vereinfachung und Digitalisierung.txt"},
          {"type":"file","name":"T 8 0 7 Bekämpfung Steuerhinterziehung und Steuergestaltung.txt"},
          {"type":"file","name":"T 8 0 8 Europäische Wirtschafts- und Finanzpolitik.txt"},
          {"type":"file","name":"T 8 0 9 Bankenunion und Finanzmarktregulierung.txt"}
        ]},
        {"type":"directory","name":"K 9 Arbeitsweise der Regierung und Fraktionen","contents":[
          {"type":"file","name":"Einleitung.txt"},
          {"type":"file","name":"T 9 0 1 Kooperation der Fraktionen.txt"},
          {"type":"file","name":"T 9 0 1 Kooperation der Koalitionspartner.txt"},
          {"type":"file","name":"T 9 0 2 Kooperation der Fraktionen.txt"},
          {"type":"file","name":"T 9 0 2 Kooperation der Koalitionspartner.txt"},
          {"type":"file","name":"T 9 0 3 Arbeit in der Bundesregierung.txt"},
          {"type":"file","name":"T 9 0 4 Pandemiebekämpfung.txt"},
          {"type":"file","name":"T 9 0 5 Europapolitische Koordinierung.txt"},
          {"type":"file","name":"T 9 0 6 Ressortverteilung.txt"}
        ]},
        {"type":"file","name":"toc.py"}
      ]}
    ]},
    {"type":"file","name":"toc.json"}
  ]},
  {"type":"report","directories":33,"files":235}
]
